Gage,Date,Start Time,Elapsed Time,Depth(mm),Elapsed Time Estimated,Rainfall Rate (mm/hr),Rainfall Estimated
90,8/1/1990,14:59,0,0.00,N,30.480,N
90,8/1/1990,14:59,2,1.02,N,182.880,N
90,8/1/1990,14:59,3,4.06,N,91.440,N
90,8/1/1990,14:59,5,7.11,N,548.640,N
90,8/1/1990,14:59,6,16.26,N,182.880,N
90,8/1/1990,14:59,7,19.30,N,76.200,N
90,8/1/1990,14:59,10,23.11,N,64.770,N
90,8/1/1990,14:59,14,27.43,N,121.920,N
90,8/1/1990,14:59,15,29.46,N,68.580,N
90,8/1/1990,14:59,17,31.75,N,45.720,N
90,8/1/1990,14:59,19,33.27,N,106.680,N
90,8/1/1990,14:59,20,35.05,N,30.480,N
90,8/1/1990,14:59,22,36.07,N,63.500,N
90,8/1/1990,14:59,28,42.42,N,26.670,N
90,8/1/1990,14:59,32,44.20,N,45.720,N
90,8/1/1990,14:59,33,44.96,N,6.773,N
90,8/1/1990,14:59,42,45.97,N,2.540,N
90,8/1/1990,14:59,54,46.48,N,0.000,N
90,8/1/1990,14:59,62,46.48,N,3.048,N
90,8/1/1990,14:59,67,46.74,N,0.802,N
90,8/1/1990,14:59,86,46.99,N,2.540,N
90,8/1/1990,14:59,98,47.50,N,3.810,N
90,8/1/1990,14:59,110,48.26,N,6.096,N
90,8/1/1990,14:59,115,48.77,N,0.544,N
90,8/1/1990,14:59,143,49.02,N,1.693,N
90,8/1/1990,14:59,170,49.78,N,4.354,N
90,8/1/1990,14:59,177,50.29,N,1.693,N
90,8/1/1990,14:59,186,50.55,N,0.000,N
90,8/1/1990,14:59,193,50.55,N,1.905,N
90,8/1/1990,14:59,209,51.05,N,2.258,N
90,8/1/1990,14:59,236,52.07,N,1.089,N
90,8/1/1990,14:59,250,52.32,N,0.610,N
90,8/1/1990,14:59,275,52.58,N,0.000,N