Gage,Date,Start Time,Elapsed Time,Depth(mm),Elapsed Time Estimated,Rainfall Rate (mm/hr),Rainfall Estimated
90,7/30/1981,19:25,0,0.00,N,53.340,N
90,7/30/1981,19:25,2,1.78,N,76.200,N
90,7/30/1981,19:25,4,4.32,N,45.720,N
90,7/30/1981,19:25,7,6.60,N,15.240,N
90,7/30/1981,19:25,13,8.13,N,68.580,N
90,7/30/1981,19:25,15,10.41,N,10.886,N
90,7/30/1981,19:25,22,11.68,N,0.635,N
90,7/30/1981,19:25,46,11.94,N,0.952,N
90,7/30/1981,19:25,62,12.19,N,0.476,N
90,7/30/1981,19:25,94,12.45,N,1.905,N
90,7/30/1981,19:25,102,12.70,N,0.492,N
90,7/30/1981,19:25,133,12.95,N,0.311,N
90,7/30/1981,19:25,182,13.21,N,22.860,N
90,7/30/1981,19:25,186,14.73,N,53.340,N
90,7/30/1981,19:25,188,16.51,N,22.860,N
90,7/30/1981,19:25,192,18.03,N,15.240,N
90,7/30/1981,19:25,198,19.56,N,9.144,N
90,7/30/1981,19:25,203,20.32,N,12.700,N
90,7/30/1981,19:25,209,21.59,N,4.572,N
90,7/30/1981,19:25,219,22.35,N,1.385,N
90,7/30/1981,19:25,230,22.61,N,2.771,N
90,7/30/1981,19:25,241,23.11,N,10.886,N
90,7/30/1981,19:25,248,24.38,N,8.467,N
90,7/30/1981,19:25,257,25.65,N,15.240,N
90,7/30/1981,19:25,262,26.92,N,8.709,N
90,7/30/1981,19:25,269,27.94,N,5.080,N
90,7/30/1981,19:25,275,28.45,N,7.620,N
90,7/30/1981,19:25,281,29.21,N,3.810,N
90,7/30/1981,19:25,297,30.23,N,2.771,N
90,7/30/1981,19:25,308,30.73,N,3.810,N
90,7/30/1981,19:25,320,31.50,N,1.905,N
90,7/30/1981,19:25,328,31.75,N,2.771,N
90,7/30/1981,19:25,339,32.26,N,1.270,N
90,7/30/1981,19:25,351,32.51,N,0.586,N
90,7/30/1981,19:25,377,32.77,N,3.387,N
90,7/30/1981,19:25,386,33.27,N,0.118,N
90,7/30/1981,19:25,515,33.53,N,0.218,N
90,7/30/1981,19:25,585,33.78,N,0.802,N
90,7/30/1981,19:25,604,34.04,N,1.306,N
90,7/30/1981,19:25,639,34.80,N,1.172,N
90,7/30/1981,19:25,665,35.31,N,4.156,N
90,7/30/1981,19:25,676,36.07,N,0.000,N