Flume,Date,Start Time,Elapsed Time,Runoff Rate (f3/s),Accumulated Volume(mm),Estimated
11,8/1/1990,15:10,0,0,0,N
11,8/1/1990,15:10,1.5,159.6,7180,N
11,8/1/1990,15:10,3,214.5,24010,N
11,8/1/1990,15:10,7.5,299,93330,N
11,8/1/1990,15:10,12,461.7,196000,N
11,8/1/1990,15:10,14.5,599.1,275600,N
11,8/1/1990,15:10,15.5,704.3,314700,N
11,8/1/1990,15:10,16.5,756.3,358500,N
11,8/1/1990,15:10,23,763.4,654800,N
11,8/1/1990,15:10,30,756.3,974000,N
11,8/1/1990,15:10,33.5,592.6,1116000,N
11,8/1/1990,15:10,35,523.7,1166000,N
11,8/1/1990,15:10,35.5,465,1181000,N
11,8/1/1990,15:10,37,363.2,1218000,N
11,8/1/1990,15:10,40,242,1272000,N
11,8/1/1990,15:10,43.5,158.2,1314000,N
11,8/1/1990,15:10,50.5,91.53,1367000,N
11,8/1/1990,15:10,52.5,76.29,1377000,N
11,8/1/1990,15:10,55,72.93,1388000,N
11,8/1/1990,15:10,56,70.51,1392000,N
11,8/1/1990,15:10,59,72.41,1405000,N
11,8/1/1990,15:10,60,71.37,1410000,N
11,8/1/1990,15:10,62.5,73.28,1420000,N
11,8/1/1990,15:10,67,63.85,1439000,N
11,8/1/1990,15:10,68,66.47,1443000,N
11,8/1/1990,15:10,73,58.63,1462000,N
11,8/1/1990,15:10,83,43.9,1492000,N
11,8/1/1990,15:10,98,36.39,1529000,N
11,8/1/1990,15:10,108,23.02,1546000,N
11,8/1/1990,15:10,119,13.89,1559000,N
11,8/1/1990,15:10,140,6.893,1572000,N
11,8/1/1990,15:10,150,4.196,1575000,N
11,8/1/1990,15:10,158,2.46,1577000,N
11,8/1/1990,15:10,176,0.8351,1578000,N
11,8/1/1990,15:10,201,0.1334,1579000,N
11,8/1/1990,15:10,229.5,0.01,1579000,N
11,8/1/1990,15:10,249,0,1579000,N